{
  "keymaps": {
    "0": { "type": "scroll.home" },
    ":": { "type": "command.show" },
    "o": { "type": "command.show.open", "alter": false },
    "O": { "type": "command.show.open", "alter": true },
    "t": { "type": "command.show.tabopen", "alter": false },
    "T": { "type": "command.show.tabopen", "alter": true },
    "w": { "type": "command.show.winopen", "alter": false },
    "W": { "type": "command.show.winopen", "alter": true },
    "b": { "type": "command.show.buffer" },
    "a": { "type": "command.show.addbookmark", "alter": true },
    "k": { "type": "scroll.vertically", "count": -1 },
    "j": { "type": "scroll.vertically", "count": 1 },
    "h": { "type": "scroll.horizonally", "count": -1 },
    "l": { "type": "scroll.horizonally", "count": 1 },
    "<C-U>": { "type": "scroll.pages", "count": -0.5 },
    "<C-D>": { "type": "scroll.pages", "count": 0.5 },
    "<C-B>": { "type": "scroll.pages", "count": -1 },
    "<C-F>": { "type": "scroll.pages", "count": 1 },
    "gg": { "type": "scroll.top" },
    "G": { "type": "scroll.bottom" },
    "$": { "type": "scroll.end" },
    "x$": { "type": "tabs.close.right" },
    "!d": { "type": "tabs.close.force" },
    "u": { "type": "tabs.reopen" },
    "J": { "type": "tabs.prev" },
    "K": { "type": "tabs.next" },
    "<C-6>": { "type": "tabs.prevsel" },
    "r": { "type": "tabs.reload", "cache": false },
    "R": { "type": "tabs.reload", "cache": true },
    "zp": { "type": "tabs.pin.toggle" },
    "zd": { "type": "tabs.duplicate" },
    "zi": { "type": "zoom.in" },
    "zo": { "type": "zoom.out" },
    "zz": { "type": "zoom.neutral" },
    "f": { "type": "follow.start", "newTab": false },
    "F": { "type": "follow.start", "newTab": true, "background": false },
    "m": { "type": "mark.set.prefix" },
    "'": { "type": "mark.jump.prefix" },
    "H": { "type": "navigate.history.prev" },
    "L": { "type": "navigate.history.next" },
    "[[": { "type": "navigate.link.prev" },
    "]]": { "type": "navigate.link.next" },
    "gu": { "type": "navigate.parent" },
    "gU": { "type": "navigate.root" },
    "gi": { "type": "focus.input" },
    "gf": { "type": "page.source" },
    "gh": { "type": "page.home" },
    "gH": { "type": "page.home", "newTab": true },
    "y": { "type": "urls.yank" },
    "p": { "type": "urls.paste", "newTab": false },
    "P": { "type": "urls.paste", "newTab": true },
    "/": { "type": "find.start" },
    "n": { "type": "find.next" },
    "N": { "type": "find.prev" },
    ".": { "type": "repeat.last" },
    "<S-Esc>": { "type": "addon.toggle.enabled" }
  },
  "search": {
    "default": "searx",
    "engines": {
      "searx": "https://searx.cedars.xyz/search?q={}",
      "metager": "https://metager.org/meta/meta.ger3?eingabe={}",
      "wikipedia": "https://en.wikipedia.org/w/index.php?search={}",
      "olam": "https://olam.in/Dictionary/?action=en_ml&q={}"
    }
  },
  "properties": {
    "hintchars": "abcdefghijklmnopqrstuvwxyz",
    "smoothscroll": false,
    "complete": "sbh",
    "colorscheme": "system"
  },
  "blacklist": [
  ]
}